[start]
20160101	0	20300101	0	50700	999999	0	0	1	1	0	150	0	0	0	0	7500	0	2000	0	500	0	0	0	Some Cats only appear here! All Cats here are Rare or above.
20180109	1100	20300101	1100	50700	999999	0	0	0	1	0	0	0	0	10000	0	0	0	0	0	0	0	0	0	
20170101	0	20300101	0	50700	999999	0	0	2	2	0	30	0	0	0	0	7500	0	2000	0	500	0	0	0		0	30	0	0	0	0	7500	0	2000	0	500	0	0	0	
20170101	0	20300101	0	50700	999999	0	0	3	2	0	75	0	0	0	0	7500	0	2000	0	500	0	0	0		0	75	0	0	0	0	7500	0	2000	0	500	0	0	0	
20191223	1100	20300101	1100	90100	999999	0	0	1	4	-1	0	0	0	0	0	0	0	0	0	0	0	0	0		-1	0	0	0	0	0	0	0	0	0	0	0	0	0		-1	0	0	0	0	0	0	0	0	0	0	0	0	0		471	0	0	0	0	0	0	0	0	0	10000	0	0	0	Get an Uber Rare Cat!! 100% Uber drop Rate in the PLATINUM CAPSULES!
20191226	1100	20200110	000	90100	999999	0	0	0	3	-1	0	0	0	0	0	0	0	0	0	0	0	0	0		-1	0	0	0	0	0	0	0	0	0	0	0	0	0		39	0	0	0	0	0	7400	0	2100	0	500	0	0	0	【Limited】 Collect Li'l Cats only during this event!★ Thru January 9th!
20200101	000	20200109	1100	90100	999999	0	0	0	2	-1	0	0	0	0	0	0	0	0	0	0	0	0	0		5	0	0	2	500	0	7000	0	2000	0	500	0	0	0	★ Limited Capsules ★ Pick up extra Catseyes in this special Capsule set!
20200104	1100	20200109	1100	90100	999999	0	0	1	1	474	150	0	3832	0	0	6970	0	2500	0	500	1	30	0	2020 New Year's Limited Edition Capsules!★ With 11-Draw Guarantee!
20200106	1100	20200109	1100	90100	999999	0	0	1	2	-1	0	0	0	0	0	0	0	0	0	0	0	0	0		448	150	0	3832	0	0	6970	0	2500	0	500	1	30	0	★ Elemental Pixies ★ Cosmic powers brought to life, with a mystery elemental!
20200109	1100	20200111	1100	90100	999999	0	0	1	1	433	150	0	0	0	0	6970	0	2500	0	500	0	30	0	The Dragon Emperors return! ★ Collect a monstrous Uber!
20200111	1100	20200114	1100	90100	999999	0	0	1	1	475	150	0	0	0	0	6970	0	2500	0	500	1	30	0	KINTARO is ready to fight! ★ Tap for more info on this new Uber!
20200111	1100	20300101	1100	90100	999999	0	0	1	4	-1	0	0	0	0	0	0	0	0	0	0	0	0	0		-1	0	0	0	0	0	0	0	0	0	0	0	0	0		-1	0	0	0	0	0	0	0	0	0	0	0	0	0		480	0	0	0	0	0	0	0	0	0	10000	0	0	0	Get an Uber Rare Cat!! 100% Uber drop Rate in the PLATINUM CAPSULES!
20200114	1100	20200117	1100	90100	999999	0	0	1	1	442	150	0	0	0	0	6970	0	2500	0	500	0	30	0	The Almighties ★ Supreme beings of Catkind, with a hidden Almighty!
20200116	1100	20200202	000	90100	999999	0	0	0	4	-1	0	0	0	0	0	0	0	0	0	0	0	0	0		-1	0	0	0	0	0	0	0	0	0	0	0	0	0		-1	0	0	0	0	0	0	0	0	0	0	0	0	0		37	0	300	0	0	0	5100	0	3500	0	1400	0	0	0	【Limited Event】 Special chance for XP and Catamins! ★ On thru 2/1!
20200117	1100	20200120	1100	90100	999999	0	0	1	1	479	150	0	0	0	0	6500	0	2600	0	900	0	0	0	D'arktanyan is here! ★ Plus higher drop rate for Uber Rares!
20200120	1100	20200123	1100	90100	999999	0	0	1	1	439	150	0	0	0	0	6970	0	2500	0	500	0	30	0	Dark Heroes ★ Defend justice with Uber Cats, plus a hidden Legend!
[end]
