[start]
20180109	1100	20300101	1100	50700	999999	0	0	0	1	0	0	0	0	10000	0	0	0	0	0	0	0	0	0	
20170101	0	20300101	0	80200	999999	0	0	2	3	0	30	0	0	0	0	7500	0	2000	0	500	0	0	0		0	30	0	0	0	0	7500	0	2000	0	500	0	0	0		0	30	0	0	0	0	7500	0	2000	0	500	0	0	0	
20170101	0	20300101	0	80200	999999	0	0	3	3	0	75	0	0	0	0	7500	0	2000	0	500	0	0	0		0	75	0	0	0	0	7500	0	2000	0	500	0	0	0		0	75	0	0	0	0	7500	0	2000	0	500	0	0	0	
20210503	1100	20300101	0	100400	999999	0	0	0	3	-1	0	0	0	0	0	0	0	0	0	0	0	0	0		-1	0	0	0	0	0	0	0	0	0	0	0	0	0		62	0	0	0	0	0	7400	0	2100	0	500	0	0	0	【Limited】 Collect Li'l Cats only during this event!	0	0	4	fr	【Durée limitée】 P’tits Chats uniquement dans cet événement !	it	【Limitato】 Ottieni Mini Gatti solo in questo evento! 	de	(Begrenzt) Sammle nur während dieses Events kleine Katzen!	es	[Exclusivo] ¡Consigue Minigatos solo en este evento!
20210416	1100	20300101	0	100400	999999	0	0	0	4	-1	0	0	0	0	0	0	0	0	0	0	0	0	0		-1	0	0	0	0	0	0	0	0	0	0	0	0	0		-1	0	0	0	0	0	0	0	0	0	0	0	0	0		63	0	300	0	0	0	5100	0	3500	0	1400	0	0	0	【Limited Event】 Special chance for XP and Catamins!	0	0	0	4	fr	【Durée limitée】 Chance spéciale d’obtenir XP et vichamines ! 	it	【Evento limitato】 Occasione speciale per XP e Vitamiao! 	de	(Begrenztes Event) Sonderchance auf XP und Katzamine! 	es	[Evento exclusivo] ¡Probabilidad de ganar XP y gataminas!
20220106	1100	20300101	1100	110100	999999	0	0	0	1	64	0	2300	0	10000	0	0	0	0	0	0	0	0	0		4	fr		it		de		es	
20220527	1100	20300101	1100	110400	999999	0	0	1	4	-1	0	0	0	0	0	0	0	0	0	0	0	0	0		-1	0	0	0	0	0	0	0	0	0	0	0	0	0		-1	0	0	0	0	0	0	0	0	0	0	0	0	0		723	0	0	0	0	0	0	0	0	0	9500	0	500	0	Get a Guaranteed Uber or Legend Rare from the Legend Capsules!	0	0	0	4	fr	Un ultra rare ou un légendaire garanti dans les Chapsules légendaires !	it	Ottieni un'unità ultra rara o leggendaria garantita dalle Capsule leggendarie!	de	Garantiert eine mega- oder legendär seltene Katze aus legendären Kapseln!	es	¡Una unidad megarrara o legendaria garantizada en las bolas legendarias!
20220527	1100	20300101	1100	110400	999999	0	0	1	5	-1	0	0	0	0	0	0	0	0	0	0	0	0	0		-1	0	0	0	0	0	0	0	0	0	0	0	0	0		-1	0	0	0	0	0	0	0	0	0	0	0	0	0		-1	0	0	0	0	0	0	0	0	0	0	0	0	0		722	0	0	0	0	0	0	0	0	0	10000	0	0	0	Get an Uber Rare Cat!! 100% Uber drop Rate in the PLATINUM CAPSULES!	0	0	0	0	4	fr	Obtiens un ultra rare ! 100 % de chances avec les Chapsules platine !	it	Ottieni un gatto ultra raro! 100% possibilità di Ultra nelle CAPSULE PLATINO!	de	Hol dir eine megaseltene Katze!! 100-%-Chance in den PLATINKAPSELN!	es	¡Gana un gato megarraro! Garantizado en las BOLAS DE PLATINO.
20220628	1100	20220701	1100	110600	999999	0	0	1	2	-1	0	0	0	0	0	0	0	0	0	0	0	0	0		645	150	0	16384	0	0	6970	0	2500	0	500	0	30	0	Tear through Zombies/Aku with Mighty Deth-Troy-R! ★ Tap banner for info!	0	4	fr	Annihile zombies/Akus avec Puissant Dess-truk-teur ★ Touche pour plus d'infos !	it	Sbaraglia zombi/Aku con Deth-Troy-R possente! ★ Tocca il banner!	de	Erledige Zombies/Aku mit dem Mächtigen Zernichter! ★ Tippe auf das Banner!	es	¡Destroza a zombis y akus con Dez-Troyer-R Brutal! ★ ¡Toca para saber más!
20220701	1100	20220704	1100	110600	999999	0	0	1	1	720	150	0	0	0	0	6500	0	2600	0	900	0	0	0	NEW hero IZ THE DANCER and Higher drop rate for Uber Rares!	4	fr	Iz la danseuse est là ! + taux d’obt. ultra rares élevé pendant la Maxi-fête !	it	NUOVO eroe Iz ballerina e più ricompense ultra rare durante il Festival Ultra!	de	NEUE Heldin „Iz die Tänzerin“ + höhere Beuterate für Megaseltene beim Megafest!	es	¡Llega Iz la Bailarina! ¡Y más probabilidad de ganar megarraros en el Megafesti!
20220704	1100	20220707	1100	110600	999999	0	0	1	1	658	150	0	0	0	0	6440	0	2500	0	1000	0	60	0	Double the Uber / Legend chances! ★ Mythical fantasy Cat heroes!	4	fr	Chance x2 : ultra rare/légendaire ! ★ Des Chats héros mythiques !	it	Doppia occasione di ultra/leggendari! ★ Mitici Gatti fantasy!	de	Doppelte Chance auf Mega/Legenden! ★ Mythische Fantasy-Katzenhelden!	es	¡Megarraros/Legendarios con el doble de probabilidad! ★ ¡Héroes míticos!
20220704	1100	20220707	1100	110600	999999	0	0	1	2	-1	0	0	0	0	0	0	0	0	0	0	0	0	0		694	150	0	0	0	0	6440	0	2500	0	1000	0	60	0	Double the Uber / Legend chances! ★ Cosmic cuties, here to crush your enemies!	0	4	fr	Chance x2 : ultra rare/légend. ! ★ Beautés cosmiques qui tueront tes ennemis !	it	Doppia occasione di ultra/leggendari! ★ Bellezze cosmiche distruttive!	de	Doppelte Chance auf Mega/Legenden! ★ Kosmische Fratze vernichten deine Gegner!	es	¡Megarraros/Legendarios con el doble de probabilidad! ★ ¡Bellezas cósmicas!
20220704	1100	20220707	1100	110600	999999	0	0	1	3	-1	0	0	0	0	0	0	0	0	0	0	0	0	0		-1	0	0	0	0	0	0	0	0	0	0	0	0	0		644	150	0	0	0	0	6440	0	2500	0	1000	0	60	0	Double the Uber / Legend chances! ★ Ultimate anti-Zombie firepower!	0	0	4	fr	Chance x2 : ultra rare/légendaire ! ★ Puissance de feu anti-zombie ultime !	it	Doppia occasione di ultra/leggendari! ★ Potenza anti-zombi finale!	de	Doppelte Chance auf Mega/Legenden! ★ Ultimative Feuerkraft gg. Zombies!	es	¡Megarraros/Legendarios con el doble de probabilidad! ★ ¡Poder antizombi!
20220707	1100	20220710	1100	110600	999999	0	0	1	1	679	150	0	0	0	0	6440	0	2500	0	1000	0	60	0	Double the Uber / Legend chances! ★ Glorious gods of the Cat pantheon!	4	fr	Chance x2 : ultra rare/légendaire ! ★ Dieux glorieux du panthéon des Chats !	it	Doppia occasione di ultra/leggendari! ★ Gloriosi dèi del pantheon felino!	de	Doppelte Chance auf Mega/Legenden! ★ Grandiose Götter des Katzenpantheons!	es	¡Megarraros/Legendarios con el doble de probabilidad! ★ ¡Dioses del panteón!
20220707	1100	20220710	1100	110600	999999	0	0	1	2	-1	0	0	0	0	0	0	0	0	0	0	0	0	0		587	150	0	0	0	0	6440	0	2500	0	1000	0	60	0	Double the Uber / Legend chances! ★ Spooky beauties from beyond!	0	4	fr	Chance x2 : ultra rare/légendaire ! ★ Beautés inquiétantes de l’au-delà !	it	Doppia occasione di ultra/leggendari! ★ Bellezze spettrali dall'aldilà!	de	Doppelte Chance auf Mega/Legenden! ★ Gruselschönheiten aus dem Jenseits!	es	¡Megarraros/Legendarios con el doble de probabilidad! ★ ¡Bellezas del más allá!
20220707	1100	20220710	1100	110600	999999	0	0	1	3	-1	0	0	0	0	0	0	0	0	0	0	0	0	0		-1	0	0	0	0	0	0	0	0	0	0	0	0	0		626	150	0	0	0	0	6440	0	2500	0	1000	0	60	0	Double the Uber / Legend chances! ★ Unstoppable Eldritch Cats(?)!	0	0	4	fr	Chance x2 : ultra rare/légendaire ! ★ Chats (?) surnaturels invincibles !	it	Doppia occasione di ultra/leggendari! ★ Gatti arcani (?) inarrestabili!	de	Doppelte Chance auf Mega/Legenden! ★ Unaufhaltsame schaurige Katzen(?)!	es	¡Megarraros/Legendarios con el doble de probabilidad! ★ ¡Gatos de Eldritch!
[end]
