[start]
20180109	1100	20300101	1100	50700	999999	0	0	0	1	0	0	0	0	10000	0	0	0	0	0	0	0	0	0	
20170101	0	20300101	0	80200	999999	0	0	2	3	0	30	0	0	0	0	7500	0	2000	0	500	0	0	0		0	30	0	0	0	0	7500	0	2000	0	500	0	0	0		0	30	0	0	0	0	7500	0	2000	0	500	0	0	0	
20170101	0	20300101	0	80200	999999	0	0	3	3	0	75	0	0	0	0	7500	0	2000	0	500	0	0	0		0	75	0	0	0	0	7500	0	2000	0	500	0	0	0		0	75	0	0	0	0	7500	0	2000	0	500	0	0	0	
20210503	1100	20300101	0	100400	999999	0	0	0	3	-1	0	0	0	0	0	0	0	0	0	0	0	0	0		-1	0	0	0	0	0	0	0	0	0	0	0	0	0		62	0	0	0	0	0	7400	0	2100	0	500	0	0	0	【Limited】 Collect Li'l Cats only during this event!	0	0	4	fr	【Durée limitée】 P’tits Chats uniquement dans cet événement !	it	【Limitato】 Ottieni Mini Gatti solo in questo evento! 	de	(Begrenzt) Sammle nur während dieses Events kleine Katzen!	es	[Exclusivo] ¡Consigue Minigatos solo en este evento!
20210416	1100	20300101	0	100400	999999	0	0	0	4	-1	0	0	0	0	0	0	0	0	0	0	0	0	0		-1	0	0	0	0	0	0	0	0	0	0	0	0	0		-1	0	0	0	0	0	0	0	0	0	0	0	0	0		63	0	300	0	0	0	5100	0	3500	0	1400	0	0	0	【Limited Event】 Special chance for XP and Catamins!	0	0	0	4	fr	【Durée limitée】 Chance spéciale d’obtenir XP et vichamines ! 	it	【Evento limitato】 Occasione speciale per XP e Vitamiao! 	de	(Begrenztes Event) Sonderchance auf XP und Katzamine! 	es	[Evento exclusivo] ¡Probabilidad de ganar XP y gataminas!
20211022	1100	20300101	1100	100900	999999	0	0	1	4	-1	0	0	0	0	0	0	0	0	0	0	0	0	0		-1	0	0	0	0	0	0	0	0	0	0	0	0	0		-1	0	0	0	0	0	0	0	0	0	0	0	0	0		617	0	0	0	0	0	0	0	0	0	10000	0	0	0	Get an Uber Rare Cat!! 100% Uber drop Rate in the PLATINUM CAPSULES!	0	0	0	4	fr	Obtiens un ultra rare ! 100 % de chances avec les Chapsules platine !	it	Ottieni un gatto ultra raro! 100% possibilità di Ultra nelle CAPSULE PLATINO!	de	Hol dir eine megaseltene Katze!! 100-%-Chance in den PLATINKAPSELN!	es	¡Gana un gato megarraro! Garantizado en las BOLAS DE PLATINO.
20211105	1100	20300101	1100	101000	999999	0	0	1	4	-1	0	0	0	0	0	0	0	0	0	0	0	0	0		-1	0	0	0	0	0	0	0	0	0	0	0	0	0		-1	0	0	0	0	0	0	0	0	0	0	0	0	0		635	0	0	0	0	0	0	0	0	0	10000	0	0	0	Get an Uber Rare Cat!! 100% Uber drop Rate in the PLATINUM CAPSULES!	0	0	0	4	fr	Obtiens un ultra rare ! 100 % de chances avec les Chapsules platine !	it	Ottieni un gatto ultra raro! 100% possibilità di Ultra nelle CAPSULE PLATINO!	de	Hol dir eine megaseltene Katze!! 100-%-Chance in den PLATINKAPSELN!	es	¡Gana un gato megarraro! Garantizado en las BOLAS DE PLATINO.
20211119	1100	20300101	1100	101000	999999	0	0	1	4	-1	0	0	0	0	0	0	0	0	0	0	0	0	0		-1	0	0	0	0	0	0	0	0	0	0	0	0	0		-1	0	0	0	0	0	0	0	0	0	0	0	0	0		636	0	0	0	0	0	0	0	0	0	10000	0	0	0	Get an Uber Rare Cat!! 100% Uber drop Rate in the PLATINUM CAPSULES!	0	0	0	4	fr	Obtiens un ultra rare ! 100 % de chances avec les Chapsules platine !	it	Ottieni un gatto ultra raro! 100% possibilità di Ultra nelle CAPSULE PLATINO!	de	Hol dir eine megaseltene Katze!! 100-%-Chance in den PLATINKAPSELN!	es	¡Gana un gato megarraro! Garantizado en las BOLAS DE PLATINO.
20211122	1100	20300101	1100	101000	999999	0	0	1	5	-1	0	0	0	0	0	0	0	0	0	0	0	0	0		-1	0	0	0	0	0	0	0	0	0	0	0	0	0		-1	0	0	0	0	0	0	0	0	0	0	0	0	0		-1	0	0	0	0	0	0	0	0	0	0	0	0	0		639	0	0	0	0	0	0	0	0	0	9500	0	500	0	Get a Guaranteed Uber or Legend Rare from the Legend Capsules!	0	0	0	0	4	fr	Un ultra rare ou un légendaire garanti dans les Chapsules légendaires !	it	Ottieni un'unità ultra rara o leggendaria garantita dalle Capsule leggendarie!	de	Garantiert eine mega- oder legendär seltene Katze aus legendären Kapseln!	es	¡Una unidad megarrara o legendaria garantizada en las bolas legendarias!
20211126	1100	20300101	1100	101000	999999	0	0	1	4	-1	0	0	0	0	0	0	0	0	0	0	0	0	0		-1	0	0	0	0	0	0	0	0	0	0	0	0	0		-1	0	0	0	0	0	0	0	0	0	0	0	0	0		637	0	0	0	0	0	0	0	0	0	10000	0	0	0	Get an Uber Rare Cat!! 100% Uber drop Rate in the PLATINUM CAPSULES!	0	0	0	4	fr	Obtiens un ultra rare ! 100 % de chances avec les Chapsules platine !	it	Ottieni un gatto ultra raro! 100% possibilità di Ultra nelle CAPSULE PLATINO!	de	Hol dir eine megaseltene Katze!! 100-%-Chance in den PLATINKAPSELN!	es	¡Gana un gato megarraro! Garantizado en las BOLAS DE PLATINO.
20211126	1100	20300101	1100	101000	999999	0	0	1	5	-1	0	0	0	0	0	0	0	0	0	0	0	0	0		-1	0	0	0	0	0	0	0	0	0	0	0	0	0		-1	0	0	0	0	0	0	0	0	0	0	0	0	0		-1	0	0	0	0	0	0	0	0	0	0	0	0	0		640	0	0	0	0	0	0	0	0	0	9500	0	500	0	Get a Guaranteed Uber or Legend Rare from the Legend Capsules!	0	0	0	0	4	fr	Un ultra rare ou un légendaire garanti dans les Chapsules légendaires !	it	Ottieni un'unità ultra rara o leggendaria garantita dalle Capsule leggendarie!	de	Garantiert eine mega- oder legendär seltene Katze aus legendären Kapseln!	es	¡Una unidad megarrara o legendaria garantizada en las bolas legendarias!
20211224	1100	20300101	1100	110000	999999	0	0	1	4	-1	0	0	0	0	0	0	0	0	0	0	0	0	0		-1	0	0	0	0	0	0	0	0	0	0	0	0	0		-1	0	0	0	0	0	0	0	0	0	0	0	0	0		655	0	0	0	0	0	0	0	0	0	9500	0	500	0	Get a Guaranteed Uber or Legend Rare from the Legend Capsules!	0	0	0	4	fr	Un ultra rare ou un légendaire garanti dans les Chapsules légendaires !	it	Ottieni un'unità ultra rara o leggendaria garantita dalle Capsule leggendarie!	de	Garantiert eine mega- oder legendär seltene Katze aus legendären Kapseln!	es	¡Una unidad megarrara o legendaria garantizada en las bolas legendarias!
20211224	1100	20300101	1100	110000	999999	0	0	1	5	-1	0	0	0	0	0	0	0	0	0	0	0	0	0		-1	0	0	0	0	0	0	0	0	0	0	0	0	0		-1	0	0	0	0	0	0	0	0	0	0	0	0	0		-1	0	0	0	0	0	0	0	0	0	0	0	0	0		653	0	0	0	0	0	0	0	0	0	10000	0	0	0	Get an Uber Rare Cat!! 100% Uber drop Rate in the PLATINUM CAPSULES!	0	0	0	0	4	fr	Obtiens un ultra rare ! 100 % de chances avec les Chapsules platine !	it	Ottieni un gatto ultra raro! 100% possibilità di Ultra nelle CAPSULE PLATINO!	de	Hol dir eine megaseltene Katze!! 100-%-Chance in den PLATINKAPSELN!	es	¡Gana un gato megarraro! Garantizado en las BOLAS DE PLATINO.
20220106	1100	20300101	1100	110100	999999	0	0	0	1	64	0	2300	0	10000	0	0	0	0	0	0	0	0	0		4	fr		it		de		es	
20220121	1100	20300101	1100	110100	999999	0	0	1	4	-1	0	0	0	0	0	0	0	0	0	0	0	0	0		-1	0	0	0	0	0	0	0	0	0	0	0	0	0		-1	0	0	0	0	0	0	0	0	0	0	0	0	0		656	0	0	0	0	0	0	0	0	0	9500	0	500	0	Get a Guaranteed Uber or Legend Rare from the Legend Capsules!	0	0	0	4	fr	Un ultra rare ou un légendaire garanti dans les Chapsules légendaires !	it	Ottieni un'unità ultra rara o leggendaria garantita dalle Capsule leggendarie!	de	Garantiert eine mega- oder legendär seltene Katze aus legendären Kapseln!	es	¡Una unidad megarrara o legendaria garantizada en las bolas legendarias!
20220121	1100	20300101	1100	110100	999999	0	0	1	5	-1	0	0	0	0	0	0	0	0	0	0	0	0	0		-1	0	0	0	0	0	0	0	0	0	0	0	0	0		-1	0	0	0	0	0	0	0	0	0	0	0	0	0		-1	0	0	0	0	0	0	0	0	0	0	0	0	0		654	0	0	0	0	0	0	0	0	0	10000	0	0	0	Get an Uber Rare Cat!! 100% Uber drop Rate in the PLATINUM CAPSULES!	0	0	0	0	4	fr	Obtiens un ultra rare ! 100 % de chances avec les Chapsules platine !	it	Ottieni un gatto ultra raro! 100% possibilità di Ultra nelle CAPSULE PLATINO!	de	Hol dir eine megaseltene Katze!! 100-%-Chance in den PLATINKAPSELN!	es	¡Gana un gato megarraro! Garantizado en las BOLAS DE PLATINO.
20220201	000	20300101	1100	110100	999999	0	0	1	4	-1	0	0	0	0	0	0	0	0	0	0	0	0	0		-1	0	0	0	0	0	0	0	0	0	0	0	0	0		-1	0	0	0	0	0	0	0	0	0	0	0	0	0		690	0	0	0	0	0	0	0	0	0	9500	0	500	0	Get a Guaranteed Uber or Legend Rare from the Legend Capsules!	0	0	0	4	fr	Un ultra rare ou un légendaire garanti dans les Chapsules légendaires !	it	Ottieni un'unità ultra rara o leggendaria garantita dalle Capsule leggendarie!	de	Garantiert eine mega- oder legendär seltene Katze aus legendären Kapseln!	es	¡Una unidad megarrara o legendaria garantizada en las bolas legendarias!
20220201	000	20300101	1100	110100	999999	0	0	1	5	-1	0	0	0	0	0	0	0	0	0	0	0	0	0		-1	0	0	0	0	0	0	0	0	0	0	0	0	0		-1	0	0	0	0	0	0	0	0	0	0	0	0	0		-1	0	0	0	0	0	0	0	0	0	0	0	0	0		689	0	0	0	0	0	0	0	0	0	10000	0	0	0	Get an Uber Rare Cat!! 100% Uber drop Rate in the PLATINUM CAPSULES!	0	0	0	0	4	fr	Obtiens un ultra rare ! 100 % de chances avec les Chapsules platine !	it	Ottieni un gatto ultra raro! 100% possibilità di Ultra nelle CAPSULE PLATINO!	de	Hol dir eine megaseltene Katze!! 100-%-Chance in den PLATINKAPSELN!	es	¡Gana un gato megarraro! Garantizado en las BOLAS DE PLATINO.
20220204	1100	20300101	1100	110100	999999	0	0	1	4	-1	0	0	0	0	0	0	0	0	0	0	0	0	0		-1	0	0	0	0	0	0	0	0	0	0	0	0	0		-1	0	0	0	0	0	0	0	0	0	0	0	0	0		692	0	0	0	0	0	0	0	0	0	9500	0	500	0	Get a Guaranteed Uber or Legend Rare from the Legend Capsules!	0	0	0	4	fr	Un ultra rare ou un légendaire garanti dans les Chapsules légendaires !	it	Ottieni un'unità ultra rara o leggendaria garantita dalle Capsule leggendarie!	de	Garantiert eine mega- oder legendär seltene Katze aus legendären Kapseln!	es	¡Una unidad megarrara o legendaria garantizada en las bolas legendarias!
20220204	1100	20300101	1100	110100	999999	0	0	1	5	-1	0	0	0	0	0	0	0	0	0	0	0	0	0		-1	0	0	0	0	0	0	0	0	0	0	0	0	0		-1	0	0	0	0	0	0	0	0	0	0	0	0	0		-1	0	0	0	0	0	0	0	0	0	0	0	0	0		691	0	0	0	0	0	0	0	0	0	10000	0	0	0	Get an Uber Rare Cat!! 100% Uber drop Rate in the PLATINUM CAPSULES!	0	0	0	0	4	fr	Obtiens un ultra rare ! 100 % de chances avec les Chapsules platine !	it	Ottieni un gatto ultra raro! 100% possibilità di Ultra nelle CAPSULE PLATINO!	de	Hol dir eine megaseltene Katze!! 100-%-Chance in den PLATINKAPSELN!	es	¡Gana un gato megarraro! Garantizado en las BOLAS DE PLATINO.
20220225	1100	20300101	1100	110200	999999	0	0	1	4	-1	0	0	0	0	0	0	0	0	0	0	0	0	0		-1	0	0	0	0	0	0	0	0	0	0	0	0	0		-1	0	0	0	0	0	0	0	0	0	0	0	0	0		706	0	0	0	0	0	0	0	0	0	9500	0	500	0	Get a Guaranteed Uber or Legend Rare from the Legend Capsules!	0	0	0	4	fr	Un ultra rare ou un légendaire garanti dans les Chapsules légendaires !	it	Ottieni un'unità ultra rara o leggendaria garantita dalle Capsule leggendarie!	de	Garantiert eine mega- oder legendär seltene Katze aus legendären Kapseln!	es	¡Una unidad megarrara o legendaria garantizada en las bolas legendarias!
20220225	1100	20300101	1100	110200	999999	0	0	1	5	-1	0	0	0	0	0	0	0	0	0	0	0	0	0		-1	0	0	0	0	0	0	0	0	0	0	0	0	0		-1	0	0	0	0	0	0	0	0	0	0	0	0	0		-1	0	0	0	0	0	0	0	0	0	0	0	0	0		705	0	0	0	0	0	0	0	0	0	10000	0	0	0	Get an Uber Rare Cat!! 100% Uber drop Rate in the PLATINUM CAPSULES!	0	0	0	0	4	fr	Obtiens un ultra rare ! 100 % de chances avec les Chapsules platine !	it	Ottieni un gatto ultra raro! 100% possibilità di Ultra nelle CAPSULE PLATINO!	de	Hol dir eine megaseltene Katze!! 100-%-Chance in den PLATINKAPSELN!	es	¡Gana un gato megarraro! Garantizado en las BOLAS DE PLATINO.
20220311	1100	20300101	1100	110200	999999	0	0	1	4	-1	0	0	0	0	0	0	0	0	0	0	0	0	0		-1	0	0	0	0	0	0	0	0	0	0	0	0	0		-1	0	0	0	0	0	0	0	0	0	0	0	0	0		687	0	0	0	0	0	0	0	0	0	9500	0	500	0	Get a Guaranteed Uber or Legend Rare from the Legend Capsules!	0	0	0	4	fr	Un ultra rare ou un légendaire garanti dans les Chapsules légendaires !	it	Ottieni un'unità ultra rara o leggendaria garantita dalle Capsule leggendarie!	de	Garantiert eine mega- oder legendär seltene Katze aus legendären Kapseln!	es	¡Una unidad megarrara o legendaria garantizada en las bolas legendarias!
20220311	1100	20300101	1100	110200	999999	0	0	1	5	-1	0	0	0	0	0	0	0	0	0	0	0	0	0		-1	0	0	0	0	0	0	0	0	0	0	0	0	0		-1	0	0	0	0	0	0	0	0	0	0	0	0	0		-1	0	0	0	0	0	0	0	0	0	0	0	0	0		685	0	0	0	0	0	0	0	0	0	10000	0	0	0	Get an Uber Rare Cat!! 100% Uber drop Rate in the PLATINUM CAPSULES!	0	0	0	0	4	fr	Obtiens un ultra rare ! 100 % de chances avec les Chapsules platine !	it	Ottieni un gatto ultra raro! 100% possibilità di Ultra nelle CAPSULE PLATINO!	de	Hol dir eine megaseltene Katze!! 100-%-Chance in den PLATINKAPSELN!	es	¡Gana un gato megarraro! Garantizado en las BOLAS DE PLATINO.
20220314	1100	20220412	0	110300	999999	0	0	4	1	18	0	0	0	1000	0	4000	0	2000	0	3000	1	0	0	【Heartbeat Catcademy】Trade Love Letters for Limited Capsule draws, thru 4/11!	Draw 	 more times from this Event for a guaranteed chance at a Limited Hero!	4	fr	【Chacadémie】 Échange des lettres d'amour contre des Chapsules jusqu'au 04/11 !	Ouvre encore	 Chapsules dans cet événement pour obtenir un héros exclusif à coup sûr.	it	【Miaoccademia Batticuore】Scambia lettere d'amore per sorteggi di capsule limitate fino all'11/04!	Sorteggia altre	 volte da questo evento per ottenere un eroe limitato garantito!	de	(Herzklopfen-Katzkademie) Tausche bis 11.04. Liebesbriefe gegen Limitierte-Kapsel-Ziehungen!	Ziehe	 Mal öfter aus diesem Event für eine garantierte Chance auf einen limit. Helden!	es	[Gatacademia de Latidos] Hasta el 11 de abril, ¡canjea cartas de amor para abrir bolas exclusivas!	Abre	 bolas más en este evento para llevarte un héroe exclusivo.
20220401	1100	20220408	1100	110300	999999	0	0	0	2	-1	0	0	0	0	0	0	0	0	0	0	0	0	0		5	0	0	2	500	0	7000	0	2000	0	500	0	0	0	★ Limited Capsules ★ Pick up extra Catseyes in this special Capsule set!	0	4	fr	★ Chapsules à durée limitée ★ Plus d’œils-de-chat dans ces Chapsules spéciales !	it	★ Capsule limitate ★ Ottieni Occhio di gatto in questo speciale set capsule!	de	★ Limitierte Kapseln ★ Hol dir zusätzliche Katzenaugen durch dieses Kapselset!	es	★ Bolas exclusivas ★ ¡Consigue más gatojos en esta serie especial de bolas!
20220408	1100	20220415	1100	110300	999999	0	0	0	2	-1	0	0	0	0	0	0	0	0	0	0	0	0	0		3	0	300	0	400	0	2000	0	7000	0	600	0	0	0	Limited Capsules ★ Collect Catfruit by drawing from this set!	0	4	fr	Chapsules ponctuelles ★ Obtiens des Chagrumes dans cet ensemble !	it	Capsule limitate ★ Ottieni miagrumi sorteggiando da questo set!	de	Limitierte Kapseln ★ Sammle Katzenfrüchte aus diesem Set!	es	Bolas exclusivas ★ ¡Consigue fruta felina en esta serie de bolas!
20220328	1100	20220411	1100	110300	999999	0	0	1	2	-1	0	0	0	0	0	0	0	0	0	0	0	0	0		711	150	0	16384	0	0	6970	0	2500	0	500	0	30	0	White Day Limited Capsules ★ Tap banner for info!	0	4	fr	Chapsules à durée limitée du White Day ! ★ Touche pour plus d'infos !	it	Capsule limitate White Day ★ Tocca il banner!	de	Limitierte White-Day-Kapseln! ★ Tippe auf das Banner!	es	¡Bolas exclusivas del Día Blanco! ★ ¡Toca para saber más!
20220408	1100	20220411	1100	110300	999999	0	0	1	2	-1	0	0	0	0	0	0	0	0	0	0	0	0	0		711	150	0	0	0	0	6970	0	2500	0	500	1	30	0	White Day Limited Capsules ★ Tap banner for info!	0	4	fr	Chapsules à durée limitée du White Day ! ★ Touche pour plus d'infos !	it	Capsule limitate White Day ★ Tocca il banner!	de	Limitierte White-Day-Kapseln! ★ Tippe auf das Banner!	es	¡Bolas exclusivas del Día Blanco! ★ ¡Toca para saber más!
20220405	1100	20220408	1100	110300	999999	0	0	1	3	-1	0	0	0	0	0	0	0	0	0	0	0	0	0		-1	0	0	0	0	0	0	0	0	0	0	0	0	0		658	150	0	16384	0	0	6970	0	2500	0	500	0	30	0	Face down Aku and Angels with NEW hero Shitakiri Sparrow! ★ Tap for info!	0	0	4	fr	Affronte Akus et anges avec le Moineau shitakiri ! ★ Touche pour des infos !	it	Affronta Aku e angelici con il NUOVO eroe Passero Shitakiri! ★ Tocca per info!	de	Stell dich Aku & Engeln mit dem NEUEN „Shitakari-Spatz“! ★ Tippe für mehr Info!	es	¡Derrota a akus y ángeles con Gorrión Cazatesoros! ★ ¡Toca para saber más!
20220408	1100	20220411	1100	110300	999999	0	0	1	1	695	150	0	0	0	0	6970	0	2500	0	500	1	30	0	Take down Colossal prey with NEW hero Huntress Terun! ★ Tap for info!	4	fr	Abats les colosses avec Terun chasseresse ! ★ Touche pour des infos	it	Elimina nemici giganti con la NUOVA unità Terun cacciatrice! ★ Tocca per info!	de	Vernichte kolossale Ziele: NEUE Heldin „Jägerin Terun“! ★ Tippe für mehr Info!	es	¡Derrota a presas colosales con Terun Cazadora! ★ ¡Toca para saber más!
20220408	1100	20300101	1100	110300	999999	0	0	1	4	-1	0	0	0	0	0	0	0	0	0	0	0	0	0		-1	0	0	0	0	0	0	0	0	0	0	0	0	0		-1	0	0	0	0	0	0	0	0	0	0	0	0	0		703	0	0	0	0	0	0	0	0	0	9500	0	500	0	Get a Guaranteed Uber or Legend Rare from the Legend Capsules!	0	0	0	4	fr	Un ultra rare ou un légendaire garanti dans les Chapsules légendaires !	it	Ottieni un'unità ultra rara o leggendaria garantita dalle Capsule leggendarie!	de	Garantiert eine mega- oder legendär seltene Katze aus legendären Kapseln!	es	¡Una unidad megarrara o legendaria garantizada en las bolas legendarias!
20220408	1100	20300101	1100	110300	999999	0	0	1	5	-1	0	0	0	0	0	0	0	0	0	0	0	0	0		-1	0	0	0	0	0	0	0	0	0	0	0	0	0		-1	0	0	0	0	0	0	0	0	0	0	0	0	0		-1	0	0	0	0	0	0	0	0	0	0	0	0	0		702	0	0	0	0	0	0	0	0	0	10000	0	0	0	Get an Uber Rare Cat!! 100% Uber drop Rate in the PLATINUM CAPSULES!	0	0	0	0	4	fr	Obtiens un ultra rare ! 100 % de chances avec les Chapsules platine !	it	Ottieni un gatto ultra raro! 100% possibilità di Ultra nelle CAPSULE PLATINO!	de	Hol dir eine megaseltene Katze!! 100-%-Chance in den PLATINKAPSELN!	es	¡Gana un gato megarraro! Garantizado en las BOLAS DE PLATINO.
20220411	1100	20220415	1100	110300	999999	0	0	1	1	699	150	0	0	0	0	6940	0	2500	0	500	0	60	0	A legion of top-class lady Cats led by Princess Cat! 2x Legend Rare drop chance!	4	fr	Légion féminine au top menée par Princesse féline ! Chance x2 : légendaire !	it	Potenti Gatte guidate dalla Principessa Gatta! Possibilità x2 di leggendari!	de	Erstklassige Katzen mit Prinzessin Katze! Doppelte Chance auf legendär Seltene!	es	¡Una legión de gatas guiadas por la Gata Princesa! ¡El doble de probabilidad!
20220411	1100	20220413	1100	110300	999999	0	0	1	2	-1	0	0	0	0	0	0	0	0	0	0	0	0	0		629	150	0	16384	0	0	6970	0	2500	0	500	0	30	0	NEW hero Summoner Satoru, effective vs Aku! ★Tap banner for info!	0	4	fr	Nouveau Satoru invocateur, efficace contre Akus ! ★Bannière pour plus d'infos.	it	Satoru invocatore: il NUOVO eroe efficace vs Aku! ★Tocca il banner!	de	NEUER Held Beschwörer Satoru, effektiv gg. Aku! ★ Tippe auf das Banner!	es	El nuevo héroe, Invocador Satoru, es eficaz contra akus. ★ ¡Toca para saber más!
20220413	1100	20220415	1100	110300	999999	0	0	1	2	-1	0	0	0	0	0	0	0	0	0	0	0	0	0		662	150	0	16384	0	0	6970	0	2500	0	500	0	30	0	Slay Aku & Aliens with White Knight Cyclops! ★ Tap banner for info!	0	4	fr	Élimine Akus/aliens avec Cyclope chevalier blanc ! ★ Touche pour plus d'infos !	it	Uccidi Aku e alieni con il Cavaliere bianco ciclope! ★ Tocca il banner!	de	Töte Aku & Aliens mit dem Weißer-Ritter-Zyklop! ★ Tippe auf das Banner!	es	¡Acaba con álienes y akus con Cíclope Caballero Blanco! ★ ¡Toca para saber más!
20220415	1100	20220502	1100	110400	999999	0	0	1	2	-1	0	0	0	0	0	0	0	0	0	0	0	0	0		724	150	0	16384	0	0	7000	0	2500	0	500	0	0	0	More True Forms for limited Easter heroes! ★ Tap for info!	0	4	fr	Formes ultimes pour héros de Pâques limités ! ★ Touche pour des infos	it	Più Forme Reali per eroi limitati di Pasqua! ★ Tocca per info!	de	Mehr wahre Formen für limit. Osterhelden! ★ Tippe für mehr Info!	es	¡Formas finales para héroes de Pascua! ★ ¡Toca para saber más!
20220415	1100	20220418	1100	110400	999999	0	0	1	3	-1	0	0	0	0	0	0	0	0	0	0	0	0	0		-1	0	0	0	0	0	0	0	0	0	0	0	0	0		587	150	0	16384	0	0	6970	0	2500	0	500	0	30	0	Spooky beauties from the netherworld! It's the GIRLS & MONSTERS!	0	0	4	fr	Beautés inquiétantes venues de l’au-delà ! C’est Les filles et les monstres !	it	Bellezze spettrali dall'oltretomba! RAGAZZE E MOSTRI in arrivo!	de	Gespenstische Schönheiten aus dem Jenseits! MÄDCHEN & MONSTER!	es	Bellezas escalofriantes del inframundo: ¡Chicas y Monstruos!
20220418	1100	20220420	1100	110400	999999	0	0	1	3	-1	0	0	0	0	0	0	0	0	0	0	0	0	0		-1	0	0	0	0	0	0	0	0	0	0	0	0	0		632	150	0	16384	0	0	6970	0	2500	0	500	0	30	0	Hevijak arises, effective vs Red and Aku! ★Tap banner for info!	0	0	4	fr	Nouveau Hevijack, efficace contre rouges et Akus ! ★Bannière pour plus d'infos.	it	Appare Hevijak: il NUOVO eroe efficace vs rossi e Aku! ★Tocca il banner!	de	NEUER Held Hevijak, effektiv gegen Rote und Aku! ★ Tippe auf das Banner!	es	Hevijak el Maligno es eficaz contra akus y rojos. ★ ¡Toca para saber más!
20220420	1100	20220422	1100	110400	999999	0	0	1	3	-1	0	0	0	0	0	0	0	0	0	0	0	0	0		-1	0	0	0	0	0	0	0	0	0	0	0	0	0		679	150	0	16384	0	0	6970	0	2500	0	500	0	30	0	Punish Floating and Aku with NEW hero Lucifer the Fallen! ★ Tap for info!	0	0	4	fr	Élimine flottants et Akus avec Lucifer le déchu ! ★ Touche pour des infos	it	Punisci fluttuanti e Aku con il NUOVO eroe Lucifero caduto! ★ Tocca per info!	de	Strafe Fliegende & Aku: NEUER „Luzifer der Gefallene“! ★ Tippe für mehr Info!	es	¡Castiga a akus y voladores con Lucifer el Caído! ★ ¡Toca para saber más!
[end]
