[start]
20160101	0	20300101	0	50700	999999	0	0	1	1	0	150	0	0	0	0	7500	0	2000	0	500	0	0	0	여기에서만 얻을 수 있는 레어 캐릭터가 100% 출현!!
20180109	1100	20300101	1100	50700	999999	0	0	0	1	0	0	0	0	10000	0	0	0	0	0	0	0	0	0	
20170101	0	20300101	0	50700	999999	0	0	2	2	0	30	0	0	0	0	7500	0	2000	0	500	0	0	0		0	30	0	0	0	0	7500	0	2000	0	500	0	0	0	
20170101	0	20300101	0	50700	999999	0	0	3	2	0	75	0	0	0	0	7500	0	2000	0	500	0	0	0		0	75	0	0	0	0	7500	0	2000	0	500	0	0	0	
20181013	1100	20300101	1100	70400	999999	0	0	1	4	-1	150	0	0	0	0	7500	0	2000	0	500	0	0	0		-1	150	0	0	0	0	7500	0	2000	0	500	0	0	0		-1	150	0	0	0	0	7500	0	2000	0	500	0	0	0		320	0	0	0	0	0	0	0	0	0	10000	0	0	0	울트라 슈퍼 레어 캐릭터를 반드시 뽑을 수 있는 「플래티넘 뽑기」
20191012	1100	20300101	1100	80900	999999	0	0	1	4	-1	150	0	0	0	0	7500	0	2000	0	500	0	0	0		-1	150	0	0	0	0	7500	0	2000	0	500	0	0	0		-1	150	0	0	0	0	7500	0	2000	0	500	0	0	0		401	0	0	0	0	0	0	0	0	0	10000	0	0	0	울트라 슈퍼 레어 캐릭터를 반드시 뽑을 수 있는 「플래티넘 뽑기」
20191029	1100	20300101	1100	80900	999999	0	0	1	4	-1	0	0	0	0	0	0	0	0	0	0	0	0	0		-1	0	0	0	0	0	0	0	0	0	0	0	0	0		-1	0	0	0	0	0	0	0	0	0	0	0	0	0		407	0	0	0	0	0	0	0	0	0	10000	0	0	0	울트라 슈퍼 레어 캐릭터를 반드시 뽑을 수 있는 「플래티넘 뽑기」
20191116	1100	20191202	0	81000	999999	0	0	0	4	-1	0	0	0	0	0	0	0	0	0	0	0	0	0		-1	0	0	0	0	0	0	0	0	0	0	0	0	0		-1	0	0	0	0	0	0	0	0	0	0	0	0	0		34	0	300	0	0	0	5100	0	3500	0	1400	0	0	0	【기간한정】고양이 드링크와 XP를 GET할 수 있는 특별 뽑기!★ 12월 1일 까지!
20191118	1100	20191203	0	81000	999999	0	0	0	3	-1	0	0	0	0	0	0	0	0	0	0	0	0	0		-1	0	0	0	0	0	0	0	0	0	0	0	0	0		36	0	0	0	0	0	7400	0	2100	0	500	0	0	0	【기간 한정】꼬맹이 고양이들을 손에 넣을 수 있는 특별 이벤트 뽑기 등장! (~12/2)
20191125	1100	20191127	1100	81000	999999	0	0	1	1	369	150	0	3784	0	0	6970	0	2500	0	500	0	30	0	★세계 최강 전력의 냥코 군단! 시크릿 참전!?★자세한 내용은 배너를 클릭! 
20191127	1100	20191129	1100	81000	999999	0	0	1	1	377	150	0	3784	0	0	6970	0	2500	0	500	0	30	0	★냥코 군단의 초비밀 병기! 시크릿 참전!?★자세한 내용은 배너를 클릭!!★
20191129	1100	20191202	1100	90000	999999	0	0	1	1	408	150	0	3784	0	0	6970	0	2500	0	500	1	30	0	★각룡 그라디오스 참전! 압도적인 존재감 뿜뿜인 드래곤들! 자세한 내용은 배너를 클릭!★
20191129	1100	20300101	1100	90000	999999	0	0	1	4	-1	0	0	0	0	0	0	0	0	0	0	0	0	0		-1	0	0	0	0	0	0	0	0	0	0	0	0	0		-1	0	0	0	0	0	0	0	0	0	0	0	0	0		413	0	0	0	0	0	0	0	0	0	10000	0	0	0	울트라 슈퍼 레어 캐릭터를 반드시 뽑을 수 있는 「플래티넘 뽑기」
20191202	1100	20191204	1100	90000	999999	0	0	1	1	402	150	0	0	0	0	6970	0	2500	0	500	0	30	0	♡새롭게 멜슈가 참전! 파워풀하고 큐♡트한 소녀들!★자세한 내용은 배너를 클릭!♡ 
20191202	1100	20191209	1100	90000	999999	0	0	0	2	-1	0	0	0	0	0	0	0	0	0	0	0	0	0		3	0	300	0	400	0	2000	0	7000	0	600	0	0	0	☆기간 한정★개다래를 획득할 수 있는 특별 뽑기!☆
20191204	1100	20191206	1100	90000	999999	0	0	1	1	362	150	0	0	0	0	6970	0	2500	0	500	0	30	0	진화로 변모하는 고대의 용사들! 시크릿 참전!?★자세한 내용은 배너를 클릭! 
20191206	1100	20191209	1100	90000	999999	0	0	1	1	411	150	0	0	0	0	6500	0	2600	0	900	0	0	0	★강력한 한정 캐릭터  「쾌걸 달타냥」  참전!★울슈레 확률 지금만 초 UP★
[end]
