[start]
20180109	1100	20300101	1100	50700	999999	0	0	0	1	0	0	0	0	10000	0	0	0	0	0	0	0	0	0	
20170101	0	20300101	0	80200	999999	0	0	2	3	0	30	0	0	0	0	7500	0	2000	0	500	0	0	0		0	30	0	0	0	0	7500	0	2000	0	500	0	0	0		0	30	0	0	0	0	7500	0	2000	0	500	0	0	0	
20170101	0	20300101	0	80200	999999	0	0	3	3	0	75	0	0	0	0	7500	0	2000	0	500	0	0	0		0	75	0	0	0	0	7500	0	2000	0	500	0	0	0		0	75	0	0	0	0	7500	0	2000	0	500	0	0	0	
20210503	1100	20300101	0	100400	999999	0	0	0	3	-1	0	0	0	0	0	0	0	0	0	0	0	0	0		-1	0	0	0	0	0	0	0	0	0	0	0	0	0		62	0	0	0	0	0	7400	0	2100	0	500	0	0	0	【기간한정】 꼬맹이 고양이들을 손에 넣을 수 있는 특별 이벤트 뽑기 등장!
20210416	1100	20300101	0	100400	999999	0	0	0	4	-1	0	0	0	0	0	0	0	0	0	0	0	0	0		-1	0	0	0	0	0	0	0	0	0	0	0	0	0		-1	0	0	0	0	0	0	0	0	0	0	0	0	0		63	0	300	0	0	0	5100	0	3500	0	1400	0	0	0	【기간한정】 고양이 드링크와 XP를 GET할 수 있는 특별 뽑기!
20220106	1100	20300101	1100	110100	999999	0	0	0	1	64	0	2300	0	10000	0	0	0	0	0	0	0	0	0	
20220527	1100	20300101	1100	110400	999999	0	0	1	4	-1	0	0	0	0	0	0	0	0	0	0	0	0	0		-1	0	0	0	0	0	0	0	0	0	0	0	0	0		-1	0	0	0	0	0	0	0	0	0	0	0	0	0		723	0	0	0	0	0	0	0	0	0	9500	0	500	0	울슈레 이상 캐릭터 반드시 1개이상 확정 획득 가능! ★레전드 뽑기★
20220527	1100	20300101	1100	110400	999999	0	0	1	5	-1	0	0	0	0	0	0	0	0	0	0	0	0	0		-1	0	0	0	0	0	0	0	0	0	0	0	0	0		-1	0	0	0	0	0	0	0	0	0	0	0	0	0		-1	0	0	0	0	0	0	0	0	0	0	0	0	0		722	0	0	0	0	0	0	0	0	0	10000	0	0	0	울트라 슈퍼 레어 캐릭터 100% 획득 가능! ★플래티넘 뽑기★
20220715	1100	20300101	1100	110600	999999	0	0	1	4	-1	0	0	0	0	0	0	0	0	0	0	0	0	0		-1	0	0	0	0	0	0	0	0	0	0	0	0	0		-1	0	0	0	0	0	0	0	0	0	0	0	0	0		730	0	0	0	0	0	0	0	0	0	9500	0	500	0	울슈레 이상 캐릭터 반드시 1개이상 확정 획득 가능! ★레전드 뽑기★
20220715	1100	20300101	1100	110600	999999	0	0	1	5	-1	0	0	0	0	0	0	0	0	0	0	0	0	0		-1	0	0	0	0	0	0	0	0	0	0	0	0	0		-1	0	0	0	0	0	0	0	0	0	0	0	0	0		-1	0	0	0	0	0	0	0	0	0	0	0	0	0		729	0	0	0	0	0	0	0	0	0	10000	0	0	0	울트라 슈퍼 레어 캐릭터 100% 획득 가능! ★플래티넘 뽑기★
20220802	1100	20300101	1100	110700	999999	0	0	1	4	-1	0	0	0	0	0	0	0	0	0	0	0	0	0		-1	0	0	0	0	0	0	0	0	0	0	0	0	0		-1	0	0	0	0	0	0	0	0	0	0	0	0	0		736	0	0	0	0	0	0	0	0	0	9500	0	500	0	울슈레 이상 캐릭터 반드시 1개이상 확정 획득 가능! ★레전드 뽑기★
20220802	1100	20300101	1100	110700	999999	0	0	1	5	-1	0	0	0	0	0	0	0	0	0	0	0	0	0		-1	0	0	0	0	0	0	0	0	0	0	0	0	0		-1	0	0	0	0	0	0	0	0	0	0	0	0	0		-1	0	0	0	0	0	0	0	0	0	0	0	0	0		735	0	0	0	0	0	0	0	0	0	10000	0	0	0	울트라 슈퍼 레어 캐릭터 100% 획득 가능! ★플래티넘 뽑기★
20220826	1100	20300101	1100	110700	999999	0	0	1	4	-1	0	0	0	0	0	0	0	0	0	0	0	0	0		-1	0	0	0	0	0	0	0	0	0	0	0	0	0		-1	0	0	0	0	0	0	0	0	0	0	0	0	0		746	0	0	0	0	0	0	0	0	0	9500	0	500	0	울슈레 이상 캐릭터 반드시 1개이상 확정 획득 가능! ★레전드 뽑기★
20220826	1100	20300101	1100	110700	999999	0	0	1	5	-1	0	0	0	0	0	0	0	0	0	0	0	0	0		-1	0	0	0	0	0	0	0	0	0	0	0	0	0		-1	0	0	0	0	0	0	0	0	0	0	0	0	0		-1	0	0	0	0	0	0	0	0	0	0	0	0	0		745	0	0	0	0	0	0	0	0	0	10000	0	0	0	울트라 슈퍼 레어 캐릭터 100% 획득 가능! ★플래티넘 뽑기★
20221019	1100	20300101	1100	110800	999999	0	0	1	4	-1	0	0	0	0	0	0	0	0	0	0	0	0	0		-1	0	0	0	0	0	0	0	0	0	0	0	0	0		-1	0	0	0	0	0	0	0	0	0	0	0	0	0		756	0	0	0	0	0	0	0	0	0	9500	0	500	0	울슈레 이상 캐릭터 반드시 1개이상 확정 획득 가능! ★레전드 뽑기★
20221019	1100	20300101	1100	110800	999999	0	0	1	5	-1	0	0	0	0	0	0	0	0	0	0	0	0	0		-1	0	0	0	0	0	0	0	0	0	0	0	0	0		-1	0	0	0	0	0	0	0	0	0	0	0	0	0		-1	0	0	0	0	0	0	0	0	0	0	0	0	0		755	0	0	0	0	0	0	0	0	0	10000	0	0	0	울트라 슈퍼 레어 캐릭터 100% 획득 가능! ★플래티넘 뽑기★
20230116	1100	20230221	000	120000	999999	0	0	4	1	22	0	0	0	1000	0	5000	0	3000	0	1000	1	0	0	【설날 이벤트】 전설의 복주머니로 돌릴 수 있는 한정 뽑기! ★2월 20일까지	이 뽑기를 	번 더 돌리면 한정 캐릭터가 반드시 출현! !
20230116	1100	20230220	1100	120000	999999	0	0	1	2	-1	0	0	0	0	0	0	0	0	0	0	0	0	0		696	150	0	4220	0	0	7000	0	2500	0	500	0	0	0	등장 캐릭터 추가! 한정 캐릭터도 등장하는 특별 뽑기!★보너스 UP 뽑기 개최 중!	0	0
20230124	000	20230201	000	120000	999999	0	0	0	2	-1	0	0	0	0	0	0	0	0	0	0	0	0	0		3	0	300	0	400	0	2000	0	7000	0	600	0	0	0	☆기간 한정★개다래를 획득할 수 있는 특별 뽑기!☆
20230126	1100	20300101	000	120000	999999	0	0	1	4	-1	0	0	0	0	0	0	0	0	0	0	0	0	0		-1	0	0	0	0	0	0	0	0	0	0	0	0	0		-1	0	0	0	0	0	0	0	0	0	0	0	0	0		775	0	0	0	0	0	0	0	0	0	9500	0	500	0	울슈레 이상 캐릭터 반드시 1개이상 확정 획득 가능! ★레전드 뽑기★
20230126	1100	20300101	000	120000	999999	0	0	1	5	-1	0	0	0	0	0	0	0	0	0	0	0	0	0		-1	0	0	0	0	0	0	0	0	0	0	0	0	0		-1	0	0	0	0	0	0	0	0	0	0	0	0	0		-1	0	0	0	0	0	0	0	0	0	0	0	0	0		774	0	0	0	0	0	0	0	0	0	10000	0	0	0	울트라 슈퍼 레어 캐릭터 100% 획득 가능! ★플래티넘 뽑기★
20230129	1100	20230201	000	120000	999999	0	0	1	1	771	150	0	0	0	0	6970	0	2500	0	500	0	30	0	설날 기념! 감사의 마음을 담은 특별 셀렉션 뽑기!★자세한 내용은 배너를 클릭!
20230201	000	20230211	000	120000	999999	0	0	0	2	-1	0	0	0	0	0	0	0	0	0	0	0	0	0		5	0	0	2	500	0	7000	0	2000	0	500	0	0	0	☆기간 한정★높은 확률로 캣츠아이를 획득할 수 있는 특별 뽑기!☆
20230201	000	20230204	1100	120000	999999	0	0	1	1	754	150	0	4216	0	0	6500	0	2600	0	900	0	0	0	신캐릭터 '무희 이즈' 참전!★울슈레 출현율 초 UP! 울트라 고양이 축제 개최 중!
20230204	1100	20230207	1100	120000	999999	0	0	1	1	769	150	0	4216	0	0	6970	0	2500	0	500	0	30	0	설날 기념! 감사의 마음을 담은 특별 셀렉션 뽑기!★자세한 내용은 배너를 클릭!
20230207	1100	20230209	1100	120000	999999	0	0	1	1	770	150	0	4216	0	0	6970	0	2500	0	500	0	30	0	설날 기념! 감사의 마음을 담은 특별 셀렉션 뽑기!★자세한 내용은 배너를 클릭!
20230209	1100	20230212	1100	120000	999999	0	0	1	1	768	150	0	4216	0	0	7000	0	2500	0	500	0	0	0	인기 캐릭터 총집합! 설날 기념 특별 뽑기!★자세한 내용은 배너를 클릭!!★
20230211	000	20230220	1100	120000	999999	0	0	0	2	-1	0	0	0	0	0	0	0	0	0	0	0	0	0		3	0	300	0	400	0	2000	0	7000	0	600	0	0	0	☆기간 한정★개다래를 획득할 수 있는 특별 뽑기!☆
20230212	1100	20230215	1100	120000	999999	0	0	1	1	771	150	0	4216	0	0	6970	0	2500	0	500	0	30	0	설날 기념! 감사의 마음을 담은 특별 셀렉션 뽑기!★자세한 내용은 배너를 클릭!
20230215	1100	20230217	1100	120000	999999	0	0	1	3	-1	0	0	0	0	0	0	0	0	0	0	0	0	0		-1	0	0	0	0	0	0	0	0	0	0	0	0	0		661	150	0	20600	0	0	6970	0	2500	0	500	0	30	0	악마와 에이리언에 강한 캐릭터 '백기사 키클롭스' 참전!★자세한 내용은 배너를 클릭!
[end]
