[start]
20180109	1100	20300101	0	60700	999999	0	0	0	1	0	0	0	0	10000	0	0	0	0	0	0	0	0	0	
20160101	0	20300101	0	50700	999999	0	0	1	1	0	150	0	0	0	0	7500	0	2000	0	500	0	0	0	ここでしか手に入らないキャラクターが必ず出現！しかもレアキャラ以上確定!!
20180101	0	20300101	0	50700	999999	0	0	2	2	33	30	0	0	0	0	7500	0	2000	0	500	0	0	0		23	30	0	0	0	0	7500	0	2000	0	500	0	0	0	
20180101	0	20300101	0	50700	999999	0	0	3	2	33	75	0	0	0	0	7500	0	2000	0	500	0	0	0		23	75	0	0	0	0	7500	0	2000	0	500	0	0	0	
20180915	1100	20300101	0	70400	999999	0	0	1	4	-1	150	0	0	0	0	7500	0	2000	0	500	0	0	0		-1	150	0	0	0	0	7500	0	2000	0	500	0	0	0		-1	150	0	0	0	0	7500	0	2000	0	500	0	0	0		320	0	0	0	0	0	0	0	0	0	10000	0	0	0	超激レアのキャラクターが必ず１体手に入る「プラチナガチャ」！
20190216	1100	20190301	2359	80200	999999	0	0	0	4	-1	150	0	0	0	0	7500	0	2000	0	500	0	0	0		-1	150	0	0	0	0	7500	0	2000	0	500	0	0	0		-1	150	0	0	0	0	7500	0	2000	0	500	0	0	0		19	0	300	0	0	0	5100	0	3500	0	1400	0	0	0	【期間限定】ネコビタンとXPが手に入る特別仕様ガチャ！★3月1日まで！
20190218	1100	20190304	1100	80201	999999	0	0	1	1	368	150	0	0	0	0	7000	0	2500	0	500	0	0	0	劇場版「Fate/stay night [Heaven's Feel]」コラボガチャ！★詳細はバナーをタップ!!
20190224	1100	20190227	1100	80201	999999	0	0	1	2	-1	150	0	0	0	0	7500	0	2000	0	500	0	0	0		360	150	0	0	0	0	6500	0	2600	0	900	0	0	0	強力な限定キャラ「幼傑ダルターニャ」も参戦！★超激レア出現率が今だけ超アップ!!
20190227	1100	20190304	1100	80300	999999	0	0	1	1	368	150	0	0	0	0	7000	0	2500	0	500	1	0	0	【終了間近】劇場版「Fate/stay night [Heaven's Feel]」ガチャ★11連で超激レア確定!!
20190227	1100	20190301	1100	80300	999999	0	0	1	2	-1	150	0	0	0	0	7500	0	2000	0	500	0	0	0		354	150	0	0	0	0	7000	0	2500	0	500	1	0	0	異世界より召喚された愉快なモンスター美少女達！★11連で超激レア確定!!
20190301	1100	20190304	1100	80300	999999	0	0	1	2	-1	150	0	0	0	0	7500	0	2000	0	500	0	0	0		345	150	0	0	0	0	7000	0	2500	0	500	1	0	0	にゃんこワールドの偉大なる神々、ここに集結！★11連で超激レア確定!!
[end]
