[start]
20180109	1100	20300101	0	60700	999999	0	0	0	1	0	0	0	0	10000	0	0	0	0	0	0	0	0	0	
20160101	0	20300101	0	50700	999999	0	0	1	1	0	150	0	0	0	0	7500	0	2000	0	500	0	0	0	ここでしか手に入らないキャラクターが必ず出現！しかもレアキャラ以上確定!!
20180101	0	20300101	0	80200	999999	0	0	2	3	33	30	0	0	0	0	7500	0	2000	0	500	0	0	0		23	30	0	0	0	0	7500	0	2000	0	500	0	0	0		0	30	0	0	0	0	7500	0	2000	0	500	0	0	0	
20180101	0	20300101	0	80200	999999	0	0	3	3	33	75	0	0	0	0	7500	0	2000	0	500	0	0	0		23	75	0	0	0	0	7500	0	2000	0	500	0	0	0		0	75	0	0	0	0	7500	0	2000	0	500	0	0	0	
20191209	1100	20300101	000	90100	999999	0	0	1	4	-1	0	0	0	0	0	0	0	0	0	0	0	0	0		-1	0	0	0	0	0	0	0	0	0	0	0	0	0		-1	0	0	0	0	0	0	0	0	0	0	0	0	0		480	0	0	0	0	0	0	0	0	0	10000	0	0	0	超激レアのキャラクターが必ず１体手に入る「プラチナガチャ」！
20200116	1100	20200201	2359	90100	999999	0	0	0	4	-1	0	0	0	0	0	0	0	0	0	0	0	0	0		-1	0	0	0	0	0	0	0	0	0	0	0	0	0		-1	0	0	0	0	0	0	0	0	0	0	0	0	0		37	0	300	0	0	0	5100	0	3500	0	1400	0	0	0	【期間限定】ネコビタンとXPが手に入る特別仕様ガチャ！★2月1日まで！
20200118	1100	20200125	1100	90100	999999	0	0	0	2	-1	0	0	0	0	0	0	0	0	0	0	0	0	0		3	0	300	0	400	0	2000	0	7000	0	600	0	0	0	高確率でマタタビが手に入るイベント限定特別ガチャ！　1月25日11時まで！
20200122	1100	20200124	1100	90200	999999	0	0	1	1	427	150	0	0	0	0	6970	0	2500	0	500	0	30	0	黒い敵相手に大暴れ！強力な効果を持つ戦国武将達！★詳細はバナーをタップ!!
20200124	1100	20200127	1100	90200	999999	0	0	1	1	452	150	0	4	0	0	7000	0	2500	0	500	0	0	0	浮いてる敵に対して強力効果の「エアバスターズ」！★おまけアップイベント開催中!!
20200127	1100	20200210	1100	90200	999999	0	0	1	1	482	150	0	0	0	0	7000	0	2500	0	500	0	0	0	【期間限定】『ケリ姫スイーツ』コラボガチャ！★詳細はバナーをタップ!!
20200127	1100	20200129	1100	90200	999999	0	0	1	2	-1	0	0	0	0	0	0	0	0	0	0	0	0	0		421	150	0	0	0	0	6970	0	2500	0	500	0	30	0	謎だらけのキモかわ生命体！シークレット新参戦！？★詳細はバナーをタップ!!
20200129	1100	20200131	1100	90200	999999	0	0	1	2	-1	0	0	0	0	0	0	0	0	0	0	0	0	0		424	150	0	0	0	0	6970	0	2500	0	500	0	30	0	ラスヴォース参戦！世界一即戦力になるにゃんこ達！★詳細はバナーをタップ!!
[end]
